<svg width="57" height="64" viewBox="0 0 57 64" fill="none" xmlns="http://www.w3.org/2000/svg">
<g clip-path="url(#clip0_700_1996)">
<path d="M5.23707 57.296L0.557617 0.106934L56.4424 0.221858L51.4944 57.296L28.7109 63.8931L5.23707 57.296Z" fill="#E9CA32"/>
<path d="M28.7109 58.3698V5.55322L51.7247 5.62984L47.6207 52.8845L28.7109 58.3698Z" fill="#FFDE25"/>
<path d="M26.2468 11.8247H20.1626V46.978L15.4304 46.0767V41.3445L9.79688 40.4431V51.0342L26.2468 55.3157V11.8247ZM30.8109 11.8247H47.6543L46.5276 18.5624H37.2408V29.6191H46.5276L45.4009 51.9356L30.8109 55.3157V48.3301L40.6687 44.95L41.2379 35.711L30.8109 37.2207V11.8247Z" fill="white"/>
</g>
<defs>
<clipPath id="clip0_700_1996">
<rect width="55.8848" height="64" fill="white" transform="translate(0.557617)"/>
</clipPath>
</defs>
</svg>
